{
  "version": "v4",
  "repo": "borisyankov/DefinitelyTyped",
  "ref": "master",
  "path": "typings",
  "bundle": "typings/tsd.d.ts",
  "installed": {
    "angularjs/angular.d.ts": {
      "commit": "1315d46f8066eec8c197914da88e98629ebc2254"
    },
    "jquery/jquery.d.ts": {
      "commit": "1315d46f8066eec8c197914da88e98629ebc2254"
    }
  }
}
